<svg width="1440" height="56" viewBox="0 0 1440 56" fill="none" xmlns="http://www.w3.org/2000/svg">
<path d="M1440.4 30C1440.4 30 1142.81 11.7884 945.487 30C748.16 48.2116 614.344 0 364.696 0C115.04 0 -0.399658 30 -0.399658 30V55.2C-0.399658 55.2 1088.49 55.2 1440.4 55.2V30Z" fill="#F9F9F9"/>
</svg>
